Name,Sex,AgeClass,WeightClassKg,Division,Equipment,Event,Best3SquatKg,Best3BenchKg,Best3DeadliftKg,TotalKg,Place,BirthDate
Ellen Freeborn,F,24-39,60,FO,Wraps,SBD,142.5,65,145,352.5,1,
Catherine Croydon,F,24-39,75,FO,Wraps,SBD,115,75,140,330,1,
Stuart Graham,M,24-39,90,MO,Wraps,SBD,210,132.5,230,572.5,1,
Greg Steele,M,20-23,90,M-J,Wraps,SBD,227.5,145,265,637.5,3,
Samuel Birch,M,20-23,90,M-J,Wraps,SBD,240,150,270,660,2,
Chris Pugh #1,M,20-23,90,M-J,Wraps,SBD,292.5,172.5,278.5,743.5,1,1993-04-16
Callum Green,M,20-23,100,M-J,Wraps,SBD,150,92.5,200,442.5,1,
Martyn Oshea,M,24-39,110,MO,Wraps,SBD,245,170,280,695,1,
Lauren Whitford,F,20-23,52,F-J,Raw,D,,,110,110,1,
