Place,Sex,Name,CyrillicName,BodyweightKg,Squat1Kg,Squat2Kg,Squat3Kg,Best3SquatKg,Squat4Kg,Bench1Kg,Bench2Kg,Bench3Kg,Best3BenchKg,Bench4Kg,Deadlift1Kg,Deadlift2Kg,Deadlift3Kg,Best3DeadliftKg,Deadlift4Kg,TotalKg,WeightClassKg,Event,Equipment,Tested,Division,BirthDate
1,F,Anastasiya Aladeva,Анастасия Аладьева,47.8,50,55,-60,55,,30,32.5,-35,32.5,,60,70,80,80,,167.5,48,SBD,Wraps,No,Pro Open,1993-12-04
1,F,Ekaterina Koshkina,Екатерина Кошкина,56,-95,95,100,100,,45,-50,-50,45,,95,102.5,110,110,,255,56,SBD,Wraps,No,Pro Open,1991-07-07
2,F,Tatyana Kuznetsova,Татьяна Кузнецова,54.1,70,75,80,80,,50,55,60,60,,80,90,100,100,,240,56,SBD,Wraps,No,Pro Open,1991-06-29
1,F,Yuliya Boyko,Юлия Бойко,59.7,110,120,-125,120,,60,65,-70,65,,110,120,125,125,,310,60,SBD,Wraps,No,Pro Open,1996-06-17
2,F,Olga Vydrenyuk,Ольга Выдренюк,58.2,85,95,-102.5,95,,45,50,-55,50,,85,95,102.5,102.5,,247.5,60,SBD,Wraps,No,Pro Open,1993-01-29
1,F,Anastasiya Tarasova,Анастасия Тарасова,63.9,90,100,110,110,,40,45,50,50,,120,130,140,140,,300,67.5,SBD,Wraps,No,Pro Open,1990-10-18
2,F,Natalya Butorina,Наталья Буторина,63.6,95,100,105,105,,45,50,-55,50,,95,100,110,110,,265,67.5,SBD,Wraps,No,Pro Open,1985-02-27
3,F,Tatyana Tarasova,Татьяна Тарасова,67.1,90,95,100,100,,57.5,60,-62.5,60,,95,102.5,-107.5,102.5,,262.5,67.5,SBD,Wraps,No,Pro Open,1973-08-03
1,F,Natalya Kurteeva,Наталья Куртеева,87.5,-135,145,,145,,82.5,87.5,-90,87.5,,130,140,145,145,,377.5,90,SBD,Wraps,No,Pro Open,1996-07-12
1,M,Makar Perminov,Макар Перминов,65.9,150,160,170,170,,105,-107.5,107.5,107.5,,150,160,170,170,,447.5,67.5,SBD,Wraps,No,Pro Open,2002-08-08
2,M,Grigoriy Vagner,Григорий Вагнер,66.7,-140,145,-150,145,,-110,-115,115,115,,150,160,170,170,,430,67.5,SBD,Wraps,No,Pro Open,1993-03-12
1,M,Artem Abashev,Артем Абашев,72.2,-200,210,220,220,,120,130,135,135,,230,-240,-240,230,,585,75,SBD,Wraps,No,Pro Open,1999-01-22
3,M,Vladislav Istomin,Владислав Истомин,73.1,130,140,-150,140,,80,85,90,90,,130,140,-145,140,,370,75,SBD,Wraps,No,Pro Open,1990-05-05
2,M,Dmitriy Modenov,Дмитрий Моденов,74.9,-200,210,-225,210,,125,132.5,135,135,,200,210,-220,210,,555,75,SBD,Wraps,No,Pro Open,1995-02-27
DQ,M,Dmitriy Kreknin,Дмитрий Крекнин,75,-165,-165,,,,,,,,,,,,,,,75,SBD,Wraps,No,Pro Open,1993-03-08
1,M,Aleksandr Gushchin,Александр Гущин,80,190,200,205,205,,140,145,-147.5,145,,202.5,210,-215,210,,560,82.5,SBD,Wraps,No,Pro Open,1990-07-03
2,M,Artem Kuchergin,Артем Кучергин,80.5,190,205,210,210,,105,-112.5,-112.5,105,,217.5,225,-232.5,225,,540,82.5,SBD,Wraps,No,Pro Open,2000-11-09
3,M,Viktor Kazakov,Виктор Казаков,81.1,190,202.5,-215,202.5,,115,122.5,-127.5,122.5,,185,200,210,210,,535,82.5,SBD,Wraps,No,Pro Open,1990-09-04
4,M,Andrey Tarasov,Андрей Тарасов,80.3,-200,200,-210,200,,120,125,130,130,,190,200,-210,200,,530,82.5,SBD,Wraps,No,Pro Open,1985-09-10
5,M,Sergey Korolev,Сергей Королев,81.9,160,-170,170,170,,-130,130,-135,130,,190,200,210,210,,510,82.5,SBD,Wraps,No,Pro Open,1982-12-17
6,M,Aleksey Tarasov,Алексей Тарасов,80.2,-170,170,180,180,,100,110,115,115,,150,160,170,170,,465,82.5,SBD,Wraps,No,Pro Open,1985-09-10
7,M,Evgeniy Marin,Евгений Марьин,81.5,160,-170,170,170,,100,-105,-105,100,,150,160,170,170,,440,82.5,SBD,Wraps,No,Pro Open,1997-10-29
8,M,Daniil Vorozhtsov,Даниил Ворожцов,81.3,-160,160,-170,160,,80,85,90,90,,160,175,-185,175,,425,82.5,SBD,Wraps,No,Pro Open,1979-08-25
9,M,Nikita Toporov,Никита Топоров,82,-130,140,-145,140,,70,-75,-80,70,,130,-140,-140,130,,340,82.5,SBD,Wraps,No,Pro Open,1996-05-09
DQ,M,Artem Kosinov,Артем Косинов,81.6,-180,-180,-180,,,,,,,,,,,,,,82.5,SBD,Wraps,No,Pro Open,1991-07-05
1,M,Anton Asapov,Антон Асапов,89.6,-220,230,240,240,,155,165,170,170,,240,260,-270,260,,670,90,SBD,Wraps,No,Pro Open,1985-01-15
2,M,Oleg Chernyadev,Олег Чернядьев,87.3,-210,215,-225,215,,-135,135,-140,135,,190,200,,200,,550,90,SBD,Wraps,No,Pro Open,1991-08-13
3,M,Anton Bikinev,Антон Бикинев,87,190,-200,200,200,,115,122.5,-127.5,122.5,,200,220,-235,220,,542.5,90,SBD,Wraps,No,Pro Open,1985-02-27
4,M,Mikhail Pinegin,Михаил Пинегин,84.2,175,180,,180,,-102.5,-105,105,105,,200,-205,-205,200,,485,90,SBD,Wraps,No,Pro Open,1992-08-14
1,M,Sergey Chakin,Сергей Чакин,99.2,250,-275,-280,250,,160,170,-177.5,170,,250,260,-270,260,,680,100,SBD,Wraps,No,Pro Open,1974-03-24
2,M,Aleksandr Limonov,Александр Лимонов,98.3,220,232.5,-245,232.5,,-130,140,-142.5,140,,250,270,-280,270,,642.5,100,SBD,Wraps,No,Pro Open,1982-12-03
3,M,Sergey Rebrishchev,Сергей Ребрищев,99.4,210,230,240,240,,120,127.5,135,135,,220,235,245,245,,620,100,SBD,Wraps,No,Pro Open,2002-03-22
4,M,Maksim Perevoshchikov,Максим Перевощиков,93.9,200,210,-220,210,,130,140,147.5,147.5,,200,220,235,235,,592.5,100,SBD,Wraps,No,Pro Open,1985-01-15
5,M,Aleksey Koshkin,Алексей Кошкин,99.5,200,210,-225,210,,130,-140,,130,,200,210,-220,210,,550,100,SBD,Wraps,No,Pro Open,1977-04-17
1,M,Artur Ionichev,Артур Ионичев,103.3,230,-250,260,260,,-170,170,-180,170,,230,245,-257.5,245,,675,110,SBD,Wraps,No,Pro Open,1982-12-03
1,M,Mikhail Litsarev,Михаил Лицарев,124.3,205,-215,220,220,,130,-140,142.5,142.5,,240,255,-260,255,,617.5,125,SBD,Wraps,No,Pro Open,1986-06-26
1,F,Anastasiya Aladeva,Анастасия Аладьева,47.8,,,,,,30,32.5,-35,32.5,,,,,,,32.5,48,B,Raw,No,Pro Open,1993-12-04
1,F,Leyla Pomaskina,Лейла Помаскина,51.6,,,,,,40,-45,45,45,,,,,,,45,52,B,Raw,No,Pro Open,1988-01-16
1,F,Elena Odemenina,Елена Одеменина,55.66,,,,,,57.5,-62.5,-62.5,57.5,,,,,,,57.5,56,B,Raw,No,Pro Open,1990-06-12
2,F,Tamara Ovsyannikova,Тамара Овсянникова,55.9,,,,,,40,45,47.5,47.5,,,,,,,47.5,56,B,Raw,No,Pro Open,1982-04-10
3,F,Ekaterina Koshkina,Екатерина Кошкина,56,,,,,,45,-50,-50,45,,,,,,,45,56,B,Raw,No,Pro Open,1991-07-07
1,F,Valeriya Stepanova,Валерия Степанова,59.62,,,,,,62.5,-65,-65,62.5,,,,,,,62.5,60,B,Raw,No,Pro Open,2001-05-02
1,F,Natalya Butorina,Наталья Буторина,63.6,,,,,,45,50,-55,50,,,,,,,50,67.5,B,Raw,No,Pro Open,1985-02-27
1,F,Natalya Kurteeva,Наталья Куртеева,87.7,,,,,,82.5,87.5,-90,87.5,,,,,,,87.5,90,B,Raw,No,Pro Open,1996-07-12
1,M,Grigoriy Vagner,Григорий Вагнер,66.65,,,,,,110,-115,115,115,,,,,,,115,67.5,B,Raw,No,Pro Open,1993-03-12
2,M,Nikita Batukhtin,Никита Батухтин,67.5,,,,,,40,45,50,50,,,,,,,50,67.5,B,Raw,No,Pro Open,2005-06-10
1,M,Andrey Odnorozhenko,Андрей Однороженко,74.55,,,,,,130,137.5,142.5,142.5,,,,,,,142.5,75,B,Raw,No,Pro Open,1990-12-20
2,M,Artem Abashev,Артем Абашев,72.2,,,,,,120,130,135,135,,,,,,,135,75,B,Raw,No,Pro Open,1999-01-22
3,M,Egor Osetrov,Егор Осетров,70.25,,,,,,75,80,85,85,,,,,,,85,75,B,Raw,No,Pro Open,1996-05-09
DQ,M,Ivan Volosov,Иван Волосов,74.05,,,,,,-125,-125,-130,,,,,,,,,75,B,Raw,No,Pro Open,1988-07-11
1,M,Aleksey Vyaznikov,Алексей Вязников,81.45,,,,,,137.5,-145,147.5,147.5,,,,,,,147.5,82.5,B,Raw,No,Pro Open,2000-11-09
2,M,Maksim Igoshin,Максим Игошин,82.5,,,,,,120,130,-140,130,,,,,,,130,82.5,B,Raw,No,Pro Open,1985-01-15
3,M,Sergey Buzmakov,Сергей Бузмаков,76.55,,,,,,120,125,-130,125,,,,,,,125,82.5,B,Raw,No,Pro Open,1990-10-13
1,M,Anton Asapov,Антон Асапов,89.6,,,,,,155,165,170,170,,,,,,,170,90,B,Raw,No,Pro Open,1985-01-15
1,M,Marat Gazizov,Марат Газизов,95.3,,,,,,200,210,215,215,,,,,,,215,100,B,Raw,No,Pro Open,1981-04-25
2,M,Vladislav Morev,Владислав Морев,95.25,,,,,,175,180,,180,,,,,,,180,100,B,Raw,No,Pro Open,1976-04-08
3,M,Oleg Shapovalov,Олег Шаповалов,98.85,,,,,,170,177.5,-185,177.5,,,,,,,177.5,100,B,Raw,No,Pro Open,1985-12-15
4,M,Aleksandr Grechishnikov,Александр Гречишников,99.75,,,,,,-160,160,165,165,,,,,,,165,100,B,Raw,No,Pro Open,1986-09-20
5,M,Sergey Malyshev,Сергей Малышев,98.75,,,,,,145,155,160,160,,,,,,,160,100,B,Raw,No,Pro Open,1981-05-28
6,M,Sergey Solovev,Сергей Соловьев,98.8,,,,,,150,-160,-160,150,,,,,,,150,100,B,Raw,No,Pro Open,1985-05-28
7,M,Andrey Zherdev,Андрей Жердев,99,,,,,,135,142.5,150,150,,,,,,,150,100,B,Raw,No,Pro Open,1977-04-17
1,M,Sergey Shumikhin,Сергей Шумихин,103,,,,,,160,170,-175,170,,,,,,,170,110,B,Raw,No,Pro Open,1982-12-03
2,M,Artur Ionichev,Артур Ионичев,103.25,,,,,,-170,170,-180,170,,,,,,,170,110,B,Raw,No,Pro Open,1982-12-03
3,M,Yaroslav Semushin,Ярослав Семушин,104.55,,,,,,162.5,167.5,-170,167.5,,,,,,,167.5,110,B,Raw,No,Pro Open,1988-06-25
4,M,Aleksey Fominykh,Алексей Фоминых,109.45,,,,,,155,-162.5,162.5,162.5,,,,,,,162.5,110,B,Raw,No,Pro Open,1988-07-11
5,M,Dmitriy Kulesha,Дмитрий Кулеша,108.45,,,,,,157.5,-167.5,-167.5,157.5,,,,,,,157.5,110,B,Raw,No,Pro Open,1980-05-10
DQ,M,Roman Gordeev,Роман Гордеев,108.5,,,,,,-117.5,-117.5,-117.5,,,,,,,,,110,B,Raw,No,Pro Open,1993-03-08
1,M,Aleksey Bekhterev,Алексей Бехтерев,120.85,,,,,,180,190,200,200,,,,,,,200,125,B,Raw,No,Pro Open,1980-05-10
2,M,Aleksey Tsybelev,Алексей Цыбелев,113.65,,,,,,180,190,195,195,,,,,,,195,125,B,Raw,No,Pro Open,1973-06-13
3,M,Oleg Oleynik,Олег Олейник,121.95,,,,,,180,190,-200,190,,,,,,,190,125,B,Raw,No,Pro Open,1993-01-12
4,M,Igor Bronnikov,Игорь Бронников,123.3,,,,,,175,180,185,185,,,,,,,185,125,B,Raw,No,Pro Open,1975-01-11
1,M,Anton Zingalev,Антон Зингалев,160,,,,,,180,190,-202.5,190,,,,,,,190,140+,B,Raw,No,Pro Open,1983-01-15
1,F,Anastasiya Aladeva,Анастасия Аладьева,47.8,,,,,,,,,,,60,70,80,80,,80,48,D,Raw,No,Pro Open,1993-12-04
1,F,Ekaterina Koshkina,Екатерина Кошкина,56,,,,,,,,,,,95,102.5,110,110,,110,56,D,Raw,No,Pro Open,1991-07-07
1,F,Olga Vydrenyuk,Ольга Выдренюк,58.18,,,,,,,,,,,85,95,102.5,102.5,,102.5,60,D,Raw,No,Pro Open,1993-01-29
2,F,Natalya Butorina,Наталья Буторина,63.6,,,,,,,,,,,95,100,110,110,,110,67.5,D,Raw,No,Pro Open,1985-02-27
1,F,Anastasiya Tarasova,Анастасия Тарасова,63.9,,,,,,,,,,,120,130,140,140,,140,67.5,D,Raw,No,Pro Open,1992-02-26
1,M,Artem Abashev,Артем Абашев,72.2,,,,,,,,,,,230,-240,240,240,,240,75,D,Raw,No,Pro Open,1999-01-22
2,M,Mikhail Lyalin,Михаил Лялин,69.85,,,,,,,,,,,130,140,150,150,,150,75,D,Raw,No,Pro Open,1976-06-28
3,M,Vladislav Istomin,Владислав Истомин,73.1,,,,,,,,,,,130,140,-145,140,,140,75,D,Raw,No,Pro Open,1990-05-05
1,M,Artem Kosinov,Артем Косинов,81.6,,,,,,,,,,,190,200,-210,200,,200,82.5,D,Raw,No,Pro Open,1991-07-05
2,M,Daniil Vorozhtsov,Даниил Ворожцов,81.25,,,,,,,,,,,160,175,-185,175,,175,82.5,D,Raw,No,Pro Open,1977-04-17
1,M,Anton Asapov,Антон Асапов,89.6,,,,,,,,,,,240,260,-270,260,,260,90,D,Raw,No,Pro Open,1985-01-15
2,M,Mikhail Pinegin,Михаил Пинегин,84.15,,,,,,,,,,,200,-205,-205,200,,200,90,D,Raw,No,Pro Open,1992-08-14
1,M,Sergey Rebrishchev,Сергей Ребрищев,99.4,,,,,,,,,,,220,235,245,245,,245,100,D,Raw,No,Pro Open,2002-03-22
2,M,Sergey Perevoshchikov,Сергей Перевощиков,107.75,,,,,,,,,,,200,220,230,230,,230,110,D,Raw,No,Pro Open,1985-01-15
1,M,Roman Gordeev,Роман Гордеев,108.5,,,,,,,,,,,165,175,185,185,,185,110,D,Raw,No,Pro Open,1993-09-13
1,M,Mikhail Litsarev,Михаил Лицарев,124.3,,,,,,,,,,,240,255,-260,255,,255,125,D,Raw,No,Pro Open,1986-06-26
