Place,Name,BirthYear,BodyweightKg,Team,Best3SquatKg,Best3BenchKg,Best3DeadliftKg,TotalKg,WeightClassKg,Event,Division,Equipment,Sex
1,Marion Friedrich,1965,43.1,PSV Schwedt,95,75,105,275,44,SBD,Open,Single-ply,F
1,Ines Wagner,1967,47.4,KSV Fürstenwalde,90,40,100,230,48,SBD,Open,Single-ply,F
1,Kerstin Hirsch,1966,51.5,ASC Nürnbg.Süd,135,70,157.5,362.5,52,SBD,Open,Single-ply,F
2,Simone Zinke,1971,52.7,AC Lauchhammer,70,45,90,205,56,SBD,Open,Single-ply,F
1,Marion Friedrich,1965,43.1,PSV Schwedt,95,75,105,275,48,SBD,Open,Single-ply,F
1,Ines Wagner,1967,47.4,KSV Fürstenwalde,90,40,100,230,52,SBD,Open,Single-ply,F
1,Kerstin Hirsch,1966,51.5,ASC Nürnbg.Süd,135,70,157.5,362.5,56,SBD,Open,Single-ply,F
2,Simone Zinke,1971,52.7,AC Lauchhammer,70,45,90,205,60,SBD,Open,Single-ply,F
1,Sandra Korte,1970,55.9,KSV Fitn.Witten,150,77.5,177.5,405,56,SBD,Open,Single-ply,F
3,Jeanett Buschmann,1972,57.8,SV Auerbach,110,60,120,290,60,SBD,Open,Single-ply,F
1,Birgit Fischer,1963,59.4,FGV Zahna,165,85,200,450,60,SBD,Open,Single-ply,F
2,Anita Thimm,1950,59.6,KSV Langen,130,75,165,370,60,SBD,Open,Single-ply,F
4,Silvia Mudrik,1977,59.9,AC Lauchhammer,77.5,52.5,82.5,212.5,60,SBD,Open,Single-ply,F
5,Dörte Jork,1971,62.9,FGV Zahna,130,75,137.5,342.5,67.5,SBD,Open,Single-ply,F
2,Michaela Näfe,1974,64.1,CPSV Chemnitz,152.5,87.5,175,415,67.5,SBD,Open,Single-ply,F
3,Martin Helmbrecht,1963,65.2,AC Lünen 88,147.5,80,140,367.5,67.5,SBD,Open,Single-ply,F
6,Christine Reckert,1969,65.2,AC Lünen 88,122.5,77.5,110,310,67.5,SBD,Open,Single-ply,F
4,Daniela Müller,1975,65.5,AC Riesa,135,70,145,350,67.5,SBD,Open,Single-ply,F
1,Eva-Mar Bachmeier,1970,67.4,Bav.Landshut,145,110.5,195,450,67.5,SBD,Open,Single-ply,F
2,Elke Dogruoez,1974,74.3,KSV Bochum,140,70,152.5,362.5,75,SBD,Open,Single-ply,F
1,Daniela Sell,1970,75,AC Marburg 1888,190,138,220,547.5,75,SBD,Open,Single-ply,F
1,Anja Wiezkowiak,1975,77.2,FGV Zahna,220,125,235,580,82.5,SBD,Open,Single-ply,F
1,Monika Trum,1975,83.3,CPSV Chemnitz,140,85,160,385,90,SBD,Open,Single-ply,F
1,Anke Nordwig,1978,90.1,FCL Rüsselsheim,135,70,105,310,90+,SBD,Open,Single-ply,F
DQ,Michaela Gall,1976,97.2,AC Lauchhammer,,,,,90+,SBD,Open,Single-ply,F
2,Matthias Rossberg,1974,64.7,AC Sie.Darmstadt,180,125,225,530,67.5,SBD,Open,Single-ply,M
1,Andreas Röhr,1969,66.8,SSV Zielitz,205,145,220,570,67.5,SBD,Open,Single-ply,M
3,Dirk Houschka,1963,67.4,Gostorfer SV,180,137.5,202.5,520,67.5,SBD,Open,Single-ply,M
5,Marcel Mette,1976,73.6,At.Sachr.Zwickau,230,145,245,620,75,SBD,Open,Single-ply,M
6,Frank Gabriel,1962,73.6,KSV Fitn.Witten,217.5,145,207.5,570,75,SBD,Open,Single-ply,M
1,Mike Nikolaizig,1965,73.9,SV Grieben,250,187.5,245,682.5,75,SBD,Open,Single-ply,M
3,Mario Schnurr,1966,74.6,AC Oppenau,265,130,267.5,662.5,75,SBD,Open,Single-ply,M
4,Thomas Marhoffer,1967,74.6,Geringswalder KS,240,155,265,660,75,SBD,Open,Single-ply,M
2,Antonio DiMarco,1973,74.7,AV Groß Zimmern,250,175,250,675,75,SBD,Open,Single-ply,M
7,Thomas Ziegler,1967,80.5,TSV Altenberg,220,150,265,635,82.5,SBD,Open,Single-ply,M
5,Steffe Leihbecher,1971,81.2,KSV Langen,260,150,250,660,82.5,SBD,Open,Single-ply,M
9,Marcel Marossow,1976,81.2,Kröpeliner SV47,205,165,235,605,82.5,SBD,Open,Single-ply,M
DQ,Waldemar Leippi,1971,81.3,SG Ch.Wolfen,,,,,82.5,SBD,Open,Single-ply,M
4,Konrad Burghardt,1974,81.4,AC Marburg 1888,245,170,247.5,662.5,82.5,SBD,Open,Single-ply,M
1,Christian Brauer,1978,81.5,Kröpeliner SV47,272.5,155,287.5,715,82.5,SBD,Open,Single-ply,M
3,Timo Beier,1970,81.5,KFV Döbeln,260,150,260,670,82.5,SBD,Open,Single-ply,M
8,Thomas Pröhl,1974,82.1,AV Lobenstein,225,165,240,630,82.5,SBD,Open,Single-ply,M
2,Andreas Schulz,1974,82.3,AC Lauchhammer,260,190,265,715,82.5,SBD,Open,Single-ply,M
6,Heiko Krüger,1971,82.4,FCL Rüsselsheim,250,162.5,247.5,660,82.5,SBD,Open,Single-ply,M
3,Steffen Spörl,1974,85.7,At.Sachr.Zwickau,270,170,252.5,692.5,90,SBD,Open,Single-ply,M
4,Axel Hüter,1971,86.8,KSC Kassel,230,155,240,625,90,SBD,Open,Single-ply,M
5,Steffen Bedrich,1973,88.1,PowerGym Wiesbaden,235,140,250,625,90,SBD,Open,Single-ply,M
1,Frank Hausburg,1971,89.1,AC Riesa,300,170,300,770,90,SBD,Open,Single-ply,M
DQ,Jörg Müller,1966,89.5,FSV Sarstedt,250,180,240,,90,SBD,Open,Single-ply,M
2,Sven Rogalski,1974,89.6,VFB Klötze,252.5,195,252.5,700,90,SBD,Open,Single-ply,M
3,Uwe Haase,1964,93.4,CPSV Chemnitz,280,212.5,265,757.5,100,SBD,Open,Single-ply,M
7,Rudolf Maier,1975,95,PL Duisburg,250,165,270,685,100,SBD,Open,Single-ply,M
8,Torsten Pfeiffer,1963,97.3,Gostorfer SV,240,160,265,665,100,SBD,Open,Single-ply,M
6,Josef Grießl,1967,98.1,Bav.Landshut,270,145,272.5,687.5,100,SBD,Open,Single-ply,M
1,Ulrich Rambow,1963,98.7,ESV Lok Stendal,300,195,292.5,787.5,100,SBD,Open,Single-ply,M
4,Patrick Schindler,1973,98.7,AC Riesa,290,170,280,740,100,SBD,Open,Single-ply,M
5,Thomas Klee,1970,99.3,KSV Fitn.Witten,267.5,182.5,260,710,100,SBD,Open,Single-ply,M
2,Josef Zámečník,1966,99.4,Bav.Landshut,295,192.5,282.5,770,100,SBD,Open,Single-ply,M
3,Michael Schrott,1972,103.8,TSV Altenberg,285,200,285,770,110,SBD,Open,Single-ply,M
7,Andreas Hiemer,1965,103.8,KSC Leintal,280,190,255,725,110,SBD,Open,Single-ply,M
DQ,Matthias Simpig,1972,104.7,AC Potsdam,,,,,110,SBD,Open,Single-ply,M
8,Sven Wernicke,1974,105.8,Kröpeliner SV47,240,195,270,705,110,SBD,Open,Single-ply,M
6,Sven Schäfer,1970,106.3,FSV 1895 Magdebg,260,220,250,730,110,SBD,Open,Single-ply,M
DQ,Jan Schmich,1963,106.3,SV Westerholt,310,197.5,285,,110,SBD,Open,Single-ply,M
DQ,Reiko Kruse,1972,107.2,Kröpeliner SV47,322.5,120,280,,110,SBD,Open,Single-ply,M
4,Thomas Guhde,1962,107.3,ACH Berlin,300,170,270,740,110,SBD,Open,Single-ply,M
5,Jürgen Löhter,1963,109.1,AV Lobenstein,285,185,265,735,110,SBD,Open,Single-ply,M
2,Oliver Knyrim,1966,109.5,KSC Kassel,300,190,290,780,110,SBD,Open,Single-ply,M
1,Wolfgang Zimmermann,1968,109.7,KSCI Amberg,305,202.5,292.5,800,110,SBD,Open,Single-ply,M
4,Jens Breitzke,1962,110.4,AV Lobenstein,305,185,310,800,125,SBD,Open,Single-ply,M
DQ,Knut Handke,1961,112.7,TSG Ruhla,310,210,295,,125,SBD,Open,Single-ply,M
1,Thorsten Hinz,1974,116.4,PowerGym Wiesbaden,290,215,325,830,125,SBD,Open,Single-ply,M
6,Rudolf Küster,1955,116.9,Phönix Kassel,320,130,310,760,125,SBD,Open,Single-ply,M
2,Andreas Koch,1964,118.3,PowerGym Wiesbaden,310,200,307.5,817.5,125,SBD,Open,Single-ply,M
5,Uwe Frey,1969,121.4,SV Fellbach,290,215,270,775,125,SBD,Open,Single-ply,M
3,Aribert Forster,1967,123.6,Bav.Landshut,300,192.5,320,812.5,125,SBD,Open,Single-ply,M
DQ,Andreas Graf,1975,127.8,FSV Sarstedt,280,170,,,125+,SBD,Open,Single-ply,M
DQ,Maik Kleidt,1968,128.4,Herrnburger AV,285,,,,125+,SBD,Open,Single-ply,M
DQ,Uwe Krah,1964,128.9,AC Marburg 1888,320,215,320,,125+,SBD,Open,Single-ply,M
DQ,Holger Kuttroff,1969,133.7,KSC Leintal,370,250,300,,125+,SBD,Open,Single-ply,M
DQ,Kay Haasler,1971,134,FSV 1895 Magdebg,,,,,125+,SBD,Open,Single-ply,M
