Name,WeightClassKg,Division,Sex,Best3SquatKg,Best3BenchKg,Best3DeadliftKg,TotalKg,Event,Equipment,Place,BirthDate
Norbert Paterniti,52,Open,M,149.69,102.06,195.04,446.79,SBD,Single-ply,1,
L. Gloecki,52,Open,M,111.13,97.52,117.93,326.59,SBD,Single-ply,2,
C. Foust,52,Open,M,88.45,68.04,117.93,274.42,SBD,Single-ply,3,
T. Becht,52,Open,M,92.99,61.24,120.2,274.42,SBD,Single-ply,4,
J. Patton,52,Open,M,83.91,56.7,111.13,251.74,SBD,Single-ply,5,
V. Mundarino,52,Open,M,68.04,56.7,113.4,238.14,SBD,Single-ply,6,
Phil DiFrancisco,56,Open,M,129.27,102.06,174.63,405.97,SBD,Single-ply,1,
R. Vogel,56,Open,M,122.47,79.38,145.15,347,SBD,Single-ply,2,
Mariah Liggett,56,Open,F,90.72,58.97,147.42,297.1,SBD,Single-ply,3,
M. Cappy,56,Open,M,124.74,72.57,,,SBD,Single-ply,DQ,
R. Hayden,60,Open,M,163.29,95.25,192.78,451.32,SBD,Single-ply,1,
K. Jackson #1,60,Open,M,136.08,106.59,183.71,426.38,SBD,Single-ply,2,
Jenny Coon,60,Open,F,83.91,43.09,113.4,240.4,SBD,Single-ply,3,
J. Muscaralla,60,Open,M,113.4,90.72,,,SBD,Single-ply,DQ,
George Niesyty,67.5,Open,M,210.92,142.88,263.08,616.89,SBD,Single-ply,1,
Anthony Jemes,67.5,Open,M,181.44,122.47,226.8,530.7,SBD,Single-ply,2,
T. Daughenbaugh,67.5,Open,M,199.58,122.47,204.12,526.17,SBD,Single-ply,3,
Greg Lowry,67.5,Open,M,217.72,113.4,192.78,523.9,SBD,Single-ply,4,
B. Cabarga,67.5,Open,M,176.9,108.86,213.19,498.95,SBD,Single-ply,5,
R. Noble,67.5,Open,M,163.29,113.4,190.51,467.2,SBD,Single-ply,6,
Mike DiGangi,67.5,Open,M,136.08,90.72,181.44,408.23,SBD,Single-ply,7,
J. Pecorard,67.5,Open,M,127.01,77.11,190.51,394.63,SBD,Single-ply,8,
Lisa Miller,67.5,Open,F,99.79,49.9,147.42,297.1,SBD,Single-ply,9,
John Welch #1,75,Open,M,247.21,183.71,276.69,707.6,SBD,Single-ply,1,
Harry Fleming,75,Open,M,244.94,149.69,244.94,639.57,SBD,Single-ply,2,
Bob Hirsh,75,Open,M,226.8,127.01,272.16,625.96,SBD,Single-ply,3,
Tom Buljat,75,Open,M,222.26,131.54,240.4,594.21,SBD,Single-ply,4,
S. Steele,75,Open,M,208.65,136.08,240.4,585.13,SBD,Single-ply,5,
Joe Rossin,75,Open,M,224.53,122.47,235.87,582.87,SBD,Single-ply,6,
J. Lamanna,75,Open,M,188.24,138.35,217.72,544.31,SBD,Single-ply,7,
Dominic Waters,75,Open,M,204.12,129.27,197.31,530.7,SBD,Single-ply,8,
J. Pearson,75,Open,M,215.46,95.25,215.46,526.17,SBD,Single-ply,9,
R. Baginski,75,Open,M,170.1,122.47,226.8,519.36,SBD,Single-ply,10,
D. Schultz,75,Open,M,199.58,120.2,185.97,505.76,SBD,Single-ply,11,
F. Klug,75,Open,M,154.22,127.01,217.72,498.95,SBD,Single-ply,12,
Art Montini,75,Open,M,158.76,104.33,215.46,478.54,SBD,Single-ply,13,1927-10-11
S. Triana,75,Open,M,149.69,111.13,188.24,449.06,SBD,Single-ply,14,
D. Johnston,75,Open,M,158.76,106.59,181.44,446.79,SBD,Single-ply,15,
J. Tedesco,75,Open,M,154.22,104.33,,,SBD,Single-ply,DQ,
J. Koplin,75,Open,M,174.63,,,,SBD,Single-ply,DQ,
D. Laioacker,75,Open,M,,,,,SBD,Single-ply,DQ,
Gary Benford,75,Open,M,,,,,SBD,Single-ply,DQ,
Tony Pharr,82.5,Open,M,226.8,172.37,263.08,662.25,SBD,Single-ply,1,
J. Turner,82.5,Open,M,235.87,165.56,258.55,659.98,SBD,Single-ply,2,
Tom Miller #4,82.5,Open,M,226.8,156.49,238.14,621.42,SBD,Single-ply,3,
Miles Baird,82.5,Open,M,215.46,147.42,247.21,610.08,SBD,Single-ply,4,
T. Sweeney,82.5,Open,M,254.01,136.08,217.72,607.81,SBD,Single-ply,5,
R. Little,82.5,Open,M,208.65,138.35,249.48,596.47,SBD,Single-ply,6,
J. Matzye,82.5,Open,M,192.78,127.01,226.8,546.58,SBD,Single-ply,7,
D. Wild,82.5,Open,M,185.97,113.4,204.12,503.49,SBD,Single-ply,8,
M. Kleis,82.5,Open,M,,,,,SBD,Single-ply,DQ,
Mike Capasso,90,Open,M,290.3,176.9,294.84,762.04,SBD,Single-ply,1,
Bruce Graser,90,Open,M,238.14,158.76,272.16,669.05,SBD,Single-ply,2,
M. Schwartz,90,Open,M,231.33,147.42,260.82,639.57,SBD,Single-ply,3,
R. McCoy,90,Open,M,233.6,165.56,226.8,625.96,SBD,Single-ply,4,
Joe Valchine,90,Open,M,229.06,142.88,229.06,601.01,SBD,Single-ply,5,
C. Abbate,90,Open,M,206.38,145.15,240.4,591.94,SBD,Single-ply,6,
T. Wojcicki,90,Open,M,204.12,129.27,242.67,576.06,SBD,Single-ply,7,
P. Richmond,90,Open,M,185.97,122.47,226.8,535.24,SBD,Single-ply,8,
C. Macaluso,90,Open,M,,,,,SBD,Single-ply,DQ,
Mark Schmidt,100,Open,M,308.44,195.04,272.16,775.64,SBD,Single-ply,1,
Phil Rosenstern,100,Open,M,278.96,158.76,333.39,771.11,SBD,Single-ply,2,
Richard Potts,100,Open,M,276.69,199.58,251.74,728.02,SBD,Single-ply,3,
Scott Warman,100,Open,M,249.48,174.63,285.76,709.87,SBD,Single-ply,4,
T. Beaumont,100,Open,M,242.67,142.88,260.82,646.37,SBD,Single-ply,5,
Ed Walker,100,Open,M,226.8,145.15,274.42,646.37,SBD,Single-ply,6,
Keith Naslund,100,Open,M,226.8,170.1,249.48,646.37,SBD,Single-ply,7,
Ernie Nagy,100,Open,M,222.26,174.63,244.94,641.83,SBD,Single-ply,8,
Bill Maragua,100,Open,M,199.58,149.69,233.6,582.87,SBD,Single-ply,9,
R. Israelson,100,Open,M,167.83,133.81,215.46,517.1,SBD,Single-ply,10,
D. Fallagan,100,Open,M,206.38,165.56,,,SBD,Single-ply,DQ,
George Sicheri,110,Open,M,276.69,190.51,283.5,750.7,SBD,Single-ply,1,
Mike Smith,110,Open,M,290.3,158.76,260.82,709.87,SBD,Single-ply,2,
Ed Ballinger,110,Open,M,256.28,170.1,274.42,700.8,SBD,Single-ply,3,
J. Haderer,110,Open,M,249.48,174.63,265.35,689.46,SBD,Single-ply,4,
B. Huey,110,Open,M,260.82,188.24,240.4,689.46,SBD,Single-ply,5,
Chuck Long,110,Open,M,272.16,145.15,226.8,644.1,SBD,Single-ply,6,
W. Knapp,110,Open,M,226.8,136.08,226.8,589.67,SBD,Single-ply,7,
Lloyd Coon,110,Open,M,195.04,111.13,195.04,501.22,SBD,Single-ply,8,
Charles Iorio,125,Open,M,312.98,195.04,272.16,780.18,SBD,Single-ply,1,
L. Eraser,125,Open,M,290.3,170.1,272.16,732.55,SBD,Single-ply,2,
Bill Knapp,125,Open,M,272.16,158.76,254.01,684.93,SBD,Single-ply,3,
Bruce Repicky,125,Open,M,251.74,138.35,251.74,641.83,SBD,Single-ply,4,
R. Graham,125,Open,M,249.48,136.08,238.14,623.69,SBD,Single-ply,5,
R. Tarr,125,Open,M,231.33,,,,SBD,Single-ply,DQ,
Telford Hagans,125+,Open,M,353.8,217.72,290.3,861.83,SBD,Single-ply,1,
Herman Seiling,125+,Open,M,204.12,145.15,226.8,576.06,SBD,Single-ply,2,
